spi_master_w/simulation/qsim/Lab_1.msim.vcd
$comment
	File created using the following command:
		vcd file Lab_1.msim.vcd -direction
$end
$date
	Mon Oct 24 17:45:29 2022
$end
$version
	ModelSim Version 10.1d
$end
$timescale
	1ps
$end
$scope module Lab_1_vlg_vec_tst $end
$var reg 1 ! clk $end
$var wire 1 " cs $end
$var wire 1 # mosi $end
$var wire 1 $ sck $end
$var wire 1 % sampler $end
$scope module i1 $end
$var wire 1 & gnd $end
$var wire 1 ' vcc $end
$var wire 1 ( unknown $end
$var tri1 1 ) devclrn $end
$var tri1 1 * devpor $end
$var tri1 1 + devoe $end
$var wire 1 , sck~output_o $end
$var wire 1 - mosi~output_o $end
$var wire 1 . cs~output_o $end
$var wire 1 / clk~input_o $end
$var wire 1 0 inst1|inst|LPM_COUNTER_component|auto_generated|counter_comb_bita0~combout $end
$var wire 1 1 inst1|inst|LPM_COUNTER_component|auto_generated|counter_reg_bit[0]~feeder_combout $end
$var wire 1 2 ~GND~combout $end
$var wire 1 3 inst1|inst|LPM_COUNTER_component|auto_generated|counter_comb_bita0~COUT $end
$var wire 1 4 inst1|inst|LPM_COUNTER_component|auto_generated|counter_comb_bita1~combout $end
$var wire 1 5 inst1|inst|LPM_COUNTER_component|auto_generated|counter_reg_bit[1]~feeder_combout $end
$var wire 1 6 inst1|inst|LPM_COUNTER_component|auto_generated|counter_comb_bita1~COUT $end
$var wire 1 7 inst1|inst|LPM_COUNTER_component|auto_generated|counter_comb_bita2~combout $end
$var wire 1 8 inst1|inst|LPM_COUNTER_component|auto_generated|counter_comb_bita2~COUT $end
$var wire 1 9 inst1|inst|LPM_COUNTER_component|auto_generated|counter_comb_bita3~combout $end
$var wire 1 : inst1|inst1~0_combout $end
$var wire 1 ; inst1|inst1~feeder_combout $end
$var wire 1 < inst1|inst1~q $end
$var wire 1 = inst1|inst1~clkctrl_outclk $end
$var wire 1 > inst|cntr~1_combout $end
$var wire 1 ? inst|cntr~2_combout $end
$var wire 1 @ inst|cntr~0_combout $end
$var wire 1 A inst|next.S_DATA_LAST~0_combout $end
$var wire 1 B inst|state.S_DATA_LAST~q $end
$var wire 1 C inst|Equal0~0_combout $end
$var wire 1 D inst|Selector0~0_combout $end
$var wire 1 E inst|state.S_IDLE~q $end
$var wire 1 F inst|shift[7]~2_combout $end
$var wire 1 G inst|next.S_DATA_W~0_combout $end
$var wire 1 H inst|state.S_DATA_W~q $end
$var wire 1 I inst|state.S_DELAY~0_combout $end
$var wire 1 J inst|state.S_DELAY~q $end
$var wire 1 K inst|Selector1~0_combout $end
$var wire 1 L inst|state.S_DATA_R~q $end
$var wire 1 M inst|shift~8_combout $end
$var wire 1 N inst|shift~7_combout $end
$var wire 1 O inst|shift~6_combout $end
$var wire 1 P inst|shift~5_combout $end
$var wire 1 Q inst|shift~4_combout $end
$var wire 1 R inst|shift~3_combout $end
$var wire 1 S inst|shift~1_combout $end
$var wire 1 T inst|mosi~1_combout $end
$var wire 1 U inst1|inst2|LPM_DECODE_component|auto_generated|w_anode112w [3] $end
$var wire 1 V inst1|inst2|LPM_DECODE_component|auto_generated|w_anode112w [2] $end
$var wire 1 W inst1|inst2|LPM_DECODE_component|auto_generated|w_anode112w [1] $end
$var wire 1 X inst1|inst2|LPM_DECODE_component|auto_generated|w_anode112w [0] $end
$var wire 1 Y inst|cntr [2] $end
$var wire 1 Z inst|cntr [1] $end
$var wire 1 [ inst|cntr [0] $end
$var wire 1 \ inst|shift [7] $end
$var wire 1 ] inst|shift [6] $end
$var wire 1 ^ inst|shift [5] $end
$var wire 1 _ inst|shift [4] $end
$var wire 1 ` inst|shift [3] $end
$var wire 1 a inst|shift [2] $end
$var wire 1 b inst|shift [1] $end
$var wire 1 c inst|shift [0] $end
$var wire 1 d inst1|inst|LPM_COUNTER_component|auto_generated|counter_reg_bit [3] $end
$var wire 1 e inst1|inst|LPM_COUNTER_component|auto_generated|counter_reg_bit [2] $end
$var wire 1 f inst1|inst|LPM_COUNTER_component|auto_generated|counter_reg_bit [1] $end
$var wire 1 g inst1|inst|LPM_COUNTER_component|auto_generated|counter_reg_bit [0] $end
$upscope $end
$upscope $end
$enddefinitions $end
#0
$dumpvars
0!
1"
0#
0$
x%
0&
1'
x(
1)
1*
1+
0,
0-
1.
0/
10
11
02
03
04
05
16
07
08
09
1:
1;
0<
0=
0>
0?
0@
0A
0B
0C
1D
0E
1F
0G
0H
1I
0J
0K
0L
1M
0N
1O
0P
1Q
0R
0S
0T
zX
zW
zV
0U
0[
0Z
0Y
zc
0b
0a
0`
0_
0^
0]
0\
0g
0f
0e
0d
$end
#12500
1!
1/
0%
1g
13
00
14
01
15
#25000
0!
0/
1%
#37500
1!
1/
0%
1f
0g
06
04
03
10
17
05
16
14
11
07
15
#50000
0!
0/
1%
#62500
1!
1/
0%
1g
13
00
06
04
01
17
05
#75000
0!
0/
1%
#87500
1!
1/
0%
1e
0f
0g
18
07
16
14
03
10
19
08
17
15
04
11
09
05
#100000
0!
0/
1%
#112500
1!
1/
0%
1g
13
00
14
01
15
#125000
0!
0/
1%
#137500
1!
1/
0%
1f
0g
06
04
03
10
18
07
05
16
14
11
19
08
17
15
09
#150000
0!
0/
1%
#162500
1!
1/
0%
1g
13
00
06
04
01
18
07
05
19
#175000
0!
0/
1%
#187500
1!
1/
0%
1d
0e
0f
0g
09
08
17
16
14
03
10
19
07
15
04
11
05
#200000
0!
0/
1%
#212500
1!
1/
0%
1g
13
00
14
01
15
#225000
0!
0/
1%
#237500
1!
1/
0%
1f
0g
1U
06
04
03
10
17
05
16
14
11
07
15
1<
1=
0:
0;
1^
1`
1b
1J
1E
1K
0I
0F
0.
0"
#250000
0!
0/
1%
#262500
1!
1/
0%
0d
0f
0U
09
04
05
#275000
0!
0/
1%
#287500
1!
1/
0%
1g
13
00
14
01
15
#300000
0!
0/
1%
#312500
1!
1/
0%
1f
0g
06
04
03
10
17
05
16
14
11
07
15
#325000
0!
0/
1%
#337500
1!
1/
0%
1g
13
00
06
04
01
17
05
#350000
0!
0/
1%
#362500
1!
1/
0%
1e
0f
0g
18
07
16
14
03
10
19
08
17
15
04
11
09
05
#375000
0!
0/
1%
#387500
1!
1/
0%
1g
13
00
14
01
15
#400000
0!
0/
1%
#412500
1!
1/
0%
1f
0g
06
04
03
10
18
07
05
16
14
11
19
08
17
15
09
#425000
0!
0/
1%
#437500
1!
1/
0%
1g
13
00
06
04
01
18
07
05
19
#450000
0!
0/
1%
#462500
1!
1/
0%
1d
0e
0f
0g
09
08
17
16
14
03
10
19
07
15
04
11
05
#475000
0!
0/
1%
#487500
1!
1/
0%
1g
13
00
14
01
15
#500000
0!
0/
1%
#512500
1!
1/
0%
1f
0g
1U
06
04
03
10
17
05
16
14
11
07
15
0<
0=
1:
1;
#525000
0!
0/
1%
#537500
1!
1/
0%
0d
0f
0U
09
04
05
#550000
0!
0/
1%
#562500
1!
1/
0%
1g
13
00
14
01
15
#575000
0!
0/
1%
#587500
1!
1/
0%
1f
0g
06
04
03
10
17
05
16
14
11
07
15
#600000
0!
0/
1%
#612500
1!
1/
0%
1g
13
00
06
04
01
17
05
#625000
0!
0/
1%
#637500
1!
1/
0%
1e
0f
0g
18
07
16
14
03
10
19
08
17
15
04
11
09
05
#650000
0!
0/
1%
#662500
1!
1/
0%
1g
13
00
14
01
15
#675000
0!
0/
1%
#687500
1!
1/
0%
1f
0g
06
04
03
10
18
07
05
16
14
11
19
08
17
15
09
#700000
0!
0/
1%
#712500
1!
1/
0%
1g
13
00
06
04
01
18
07
05
19
#725000
0!
0/
1%
#737500
1!
1/
0%
1d
0e
0f
0g
09
08
17
16
14
03
10
19
07
15
04
11
05
#750000
0!
0/
1%
#762500
1!
1/
0%
1g
13
00
14
01
15
#775000
0!
0/
1%
#787500
1!
1/
0%
1f
0g
1U
06
04
03
10
17
05
16
14
11
07
15
1<
1=
0:
0;
0J
1L
0K
1G
1,
1$
#800000
0!
0/
1%
#812500
1!
1/
0%
0d
0f
0U
09
04
05
#825000
0!
0/
1%
#837500
1!
1/
0%
1g
13
00
14
01
15
#850000
0!
0/
1%
#862500
1!
1/
0%
1f
0g
06
04
03
10
17
05
16
14
11
07
15
#875000
0!
0/
1%
#887500
1!
1/
0%
1g
13
00
06
04
01
17
05
#900000
0!
0/
1%
#912500
1!
1/
0%
1e
0f
0g
18
07
16
14
03
10
19
08
17
15
04
11
09
05
#925000
0!
0/
1%
#937500
1!
1/
0%
1g
13
00
14
01
15
#950000
0!
0/
1%
#962500
1!
1/
0%
1f
0g
06
04
03
10
18
07
05
16
14
11
19
08
17
15
09
#975000
0!
0/
1%
#987500
1!
1/
0%
1g
13
00
06
04
01
18
07
05
19
#1000000
0!
0/
1%
#1012500
1!
1/
0%
1d
0e
0f
0g
09
08
17
16
14
03
10
19
07
15
04
11
05
#1025000
0!
0/
1%
#1037500
1!
1/
0%
1g
13
00
14
01
15
#1050000
0!
0/
1%
#1062500
1!
1/
0%
1f
0g
1U
06
04
03
10
17
05
16
14
11
07
15
0<
0=
1:
1;
#1075000
0!
0/
1%
#1087500
1!
1/
0%
0d
0f
0U
09
04
05
#1100000
0!
0/
1%
#1112500
1!
1/
0%
1g
13
00
14
01
15
#1125000
0!
0/
1%
#1137500
1!
1/
0%
1f
0g
06
04
03
10
17
05
16
14
11
07
15
#1150000
0!
0/
1%
#1162500
1!
1/
0%
1g
13
00
06
04
01
17
05
#1175000
0!
0/
1%
#1187500
1!
1/
0%
1e
0f
0g
18
07
16
14
03
10
19
08
17
15
04
11
09
05
#1200000
0!
0/
1%
#1212500
1!
1/
0%
1g
13
00
14
01
15
#1225000
0!
0/
1%
#1237500
1!
1/
0%
1f
0g
06
04
03
10
18
07
05
16
14
11
19
08
17
15
09
#1250000
0!
0/
1%
#1262500
1!
1/
0%
1g
13
00
06
04
01
18
07
05
19
#1275000
0!
0/
1%
#1287500
1!
1/
0%
1d
0e
0f
0g
09
08
17
16
14
03
10
19
07
15
04
11
05
#1300000
0!
0/
1%
#1312500
1!
1/
0%
1g
13
00
14
01
15
#1325000
0!
0/
1%
#1337500
1!
1/
0%
1f
0g
1U
06
04
03
10
17
05
16
14
11
07
15
1<
1=
0:
0;
1H
0L
1R
0Q
1P
0O
1N
0M
1K
1F
1>
0G
0,
0$
#1350000
0!
0/
1%
#1362500
1!
1/
0%
0d
0f
0U
09
04
05
#1375000
0!
0/
1%
#1387500
1!
1/
0%
1g
13
00
14
01
15
#1400000
0!
0/
1%
#1412500
1!
1/
0%
1f
0g
06
04
03
10
17
05
16
14
11
07
15
#1425000
0!
0/
1%
#1437500
1!
1/
0%
1g
13
00
06
04
01
17
05
#1450000
0!
0/
1%
#1462500
1!
1/
0%
1e
0f
0g
18
07
16
14
03
10
19
08
17
15
04
11
09
05
#1475000
0!
0/
1%
#1487500
1!
1/
0%
1g
13
00
14
01
15
#1500000
0!
0/
1%
#1512500
1!
1/
0%
1f
0g
06
04
03
10
18
07
05
16
14
11
19
08
17
15
09
#1525000
0!
0/
1%
#1537500
1!
1/
0%
1g
13
00
06
04
01
18
07
05
19
#1550000
0!
0/
1%
#1562500
1!
1/
0%
1d
0e
0f
0g
09
08
17
16
14
03
10
19
07
15
04
11
05
#1575000
0!
0/
1%
#1587500
1!
1/
0%
1g
13
00
14
01
15
#1600000
0!
0/
1%
#1612500
1!
1/
0%
1f
0g
1U
06
04
03
10
17
05
16
14
11
07
15
0<
0=
1:
1;
#1625000
0!
0/
1%
#1637500
1!
1/
0%
0d
0f
0U
09
04
05
#1650000
0!
0/
1%
#1662500
1!
1/
0%
1g
13
00
14
01
15
#1675000
0!
0/
1%
#1687500
1!
1/
0%
1f
0g
06
04
03
10
17
05
16
14
11
07
15
#1700000
0!
0/
1%
#1712500
1!
1/
0%
1g
13
00
06
04
01
17
05
#1725000
0!
0/
1%
#1737500
1!
1/
0%
1e
0f
0g
18
07
16
14
03
10
19
08
17
15
04
11
09
05
#1750000
0!
0/
1%
#1762500
1!
1/
0%
1g
13
00
14
01
15
#1775000
0!
0/
1%
#1787500
1!
1/
0%
1f
0g
06
04
03
10
18
07
05
16
14
11
19
08
17
15
09
#1800000
0!
0/
1%
#1812500
1!
1/
0%
1g
13
00
06
04
01
18
07
05
19
#1825000
0!
0/
1%
#1837500
1!
1/
0%
1d
0e
0f
0g
09
08
17
16
14
03
10
19
07
15
04
11
05
#1850000
0!
0/
1%
#1862500
1!
1/
0%
1g
13
00
14
01
15
#1875000
0!
0/
1%
#1887500
1!
1/
0%
1f
0g
1U
06
04
03
10
17
05
16
14
11
07
15
1<
1=
0:
0;
1]
0^
1_
0`
1a
0b
0H
1[
1L
0R
1Q
0P
1O
0N
0K
0F
0>
1G
1,
1$
#1900000
0!
0/
1%
#1912500
1!
1/
0%
0d
0f
0U
09
04
05
#1925000
0!
0/
1%
#1937500
1!
1/
0%
1g
13
00
14
01
15
#1950000
0!
0/
1%
#1962500
1!
1/
0%
1f
0g
06
04
03
10
17
05
16
14
11
07
15
#1975000
0!
0/
1%
#1987500
1!
1/
0%
1g
13
00
06
04
01
17
05
#2000000
0!
0/
1%
#2012500
1!
1/
0%
1e
0f
0g
18
07
16
14
03
10
19
08
17
15
04
11
09
05
#2025000
0!
0/
1%
#2037500
1!
1/
0%
1g
13
00
14
01
15
#2050000
0!
0/
1%
#2062500
1!
1/
0%
1f
0g
06
04
03
10
18
07
05
16
14
11
19
08
17
15
09
#2075000
0!
0/
1%
#2087500
1!
1/
0%
1g
13
00
06
04
01
18
07
05
19
#2100000
0!
0/
1%
#2112500
1!
1/
0%
1d
0e
0f
0g
09
08
17
16
14
03
10
19
07
15
04
11
05
#2125000
0!
0/
1%
#2137500
1!
1/
0%
1g
13
00
14
01
15
#2150000
0!
0/
1%
#2162500
1!
1/
0%
1f
0g
1U
06
04
03
10
17
05
16
14
11
07
15
0<
0=
1:
1;
#2175000
0!
0/
1%
#2187500
1!
1/
0%
0d
0f
0U
09
04
05
#2200000
0!
0/
1%
#2212500
1!
1/
0%
1g
13
00
14
01
15
#2225000
0!
0/
1%
#2237500
1!
1/
0%
1f
0g
06
04
03
10
17
05
16
14
11
07
15
#2250000
0!
0/
1%
#2262500
1!
1/
0%
1g
13
00
06
04
01
17
05
#2275000
0!
0/
1%
#2287500
1!
1/
0%
1e
0f
0g
18
07
16
14
03
10
19
08
17
15
04
11
09
05
#2300000
0!
0/
1%
#2312500
1!
1/
0%
1g
13
00
14
01
15
#2325000
0!
0/
1%
#2337500
1!
1/
0%
1f
0g
06
04
03
10
18
07
05
16
14
11
19
08
17
15
09
#2350000
0!
0/
1%
#2362500
1!
1/
0%
1g
13
00
06
04
01
18
07
05
19
#2375000
0!
0/
1%
#2387500
1!
1/
0%
1d
0e
0f
0g
09
08
17
16
14
03
10
19
07
15
04
11
05
#2400000
0!
0/
1%
#2412500
1!
1/
0%
1g
13
00
14
01
15
#2425000
0!
0/
1%
#2437500
1!
1/
0%
1f
0g
1U
06
04
03
10
17
05
16
14
11
07
15
1<
1=
0:
0;
1H
0L
1S
1K
1F
1?
0G
0,
0$
#2450000
0!
0/
1%
#2462500
1!
1/
0%
0d
0f
0U
09
04
05
#2475000
0!
0/
1%
#2487500
1!
1/
0%
1g
13
00
14
01
15
#2500000
0!
0/
1%
#2512500
1!
1/
0%
1f
0g
06
04
03
10
17
05
16
14
11
07
15
#2525000
0!
0/
1%
#2537500
1!
1/
0%
1g
13
00
06
04
01
17
05
#2550000
0!
0/
1%
#2562500
1!
1/
0%
1e
0f
0g
18
07
16
14
03
10
19
08
17
15
04
11
09
05
#2575000
0!
0/
1%
#2587500
1!
1/
0%
1g
13
00
14
01
15
#2600000
0!
0/
1%
#2612500
1!
1/
0%
1f
0g
06
04
03
10
18
07
05
16
14
11
19
08
17
15
09
#2625000
0!
0/
1%
#2637500
1!
1/
0%
1g
13
00
06
04
01
18
07
05
19
#2650000
0!
0/
1%
#2662500
1!
1/
0%
1d
0e
0f
0g
09
08
17
16
14
03
10
19
07
15
04
11
05
#2675000
0!
0/
1%
#2687500
1!
1/
0%
1g
13
00
14
01
15
#2700000
0!
0/
1%
#2712500
1!
1/
0%
1f
0g
1U
06
04
03
10
17
05
16
14
11
07
15
0<
0=
1:
1;
#2725000
0!
0/
1%
#2737500
1!
1/
0%
0d
0f
0U
09
04
05
#2750000
0!
0/
1%
#2762500
1!
1/
0%
1g
13
00
14
01
15
#2775000
0!
0/
1%
#2787500
1!
1/
0%
1f
0g
06
04
03
10
17
05
16
14
11
07
15
#2800000
0!
0/
1%
#2812500
1!
1/
0%
1g
13
00
06
04
01
17
05
#2825000
0!
0/
1%
#2837500
1!
1/
0%
1e
0f
0g
18
07
16
14
03
10
19
08
17
15
04
11
09
05
#2850000
0!
0/
1%
#2862500
1!
1/
0%
1g
13
00
14
01
15
#2875000
0!
0/
1%
#2887500
1!
1/
0%
1f
0g
06
04
03
10
18
07
05
16
14
11
19
08
17
15
09
#2900000
0!
0/
1%
#2912500
1!
1/
0%
1g
13
00
06
04
01
18
07
05
19
#2925000
0!
0/
1%
#2937500
1!
1/
0%
1d
0e
0f
0g
09
08
17
16
14
03
10
19
07
15
04
11
05
#2950000
0!
0/
1%
#2962500
1!
1/
0%
1g
13
00
14
01
15
#2975000
0!
0/
1%
#2987500
1!
1/
0%
1f
0g
1U
06
04
03
10
17
05
16
14
11
07
15
1<
1=
0:
0;
1\
0]
1^
0_
1`
0a
0H
0[
1Z
1L
0S
0K
0F
0?
1G
1,
1$
1T
1-
1#
#3000000
0!
0/
1%
#3012500
1!
1/
0%
0d
0f
0U
09
04
05
#3025000
0!
0/
1%
#3037500
1!
1/
0%
1g
13
00
14
01
15
#3050000
0!
0/
1%
#3062500
1!
1/
0%
1f
0g
06
04
03
10
17
05
16
14
11
07
15
#3075000
0!
0/
1%
#3087500
1!
1/
0%
1g
13
00
06
04
01
17
05
#3100000
0!
0/
1%
#3112500
1!
1/
0%
1e
0f
0g
18
07
16
14
03
10
19
08
17
15
04
11
09
05
#3125000
0!
0/
1%
#3137500
1!
1/
0%
1g
13
00
14
01
15
#3150000
0!
0/
1%
#3162500
1!
1/
0%
1f
0g
06
04
03
10
18
07
05
16
14
11
19
08
17
15
09
#3175000
0!
0/
1%
#3187500
1!
1/
0%
1g
13
00
06
04
01
18
07
05
19
#3200000
0!
0/
1%
#3212500
1!
1/
0%
1d
0e
0f
0g
09
08
17
16
14
03
10
19
07
15
04
11
05
#3225000
0!
0/
1%
#3237500
1!
1/
0%
1g
13
00
14
01
15
#3250000
0!
0/
1%
#3262500
1!
1/
0%
1f
0g
1U
06
04
03
10
17
05
16
14
11
07
15
0<
0=
1:
1;
#3275000
0!
0/
1%
#3287500
1!
1/
0%
0d
0f
0U
09
04
05
#3300000
0!
0/
1%
#3312500
1!
1/
0%
1g
13
00
14
01
15
#3325000
0!
0/
1%
#3337500
1!
1/
0%
1f
0g
06
04
03
10
17
05
16
14
11
07
15
#3350000
0!
0/
1%
#3362500
1!
1/
0%
1g
13
00
06
04
01
17
05
#3375000
0!
0/
1%
#3387500
1!
1/
0%
1e
0f
0g
18
07
16
14
03
10
19
08
17
15
04
11
09
05
#3400000
0!
0/
1%
#3412500
1!
1/
0%
1g
13
00
14
01
15
#3425000
0!
0/
1%
#3437500
1!
1/
0%
1f
0g
06
04
03
10
18
07
05
16
14
11
19
08
17
15
09
#3450000
0!
0/
1%
#3462500
1!
1/
0%
1g
13
00
06
04
01
18
07
05
19
#3475000
0!
0/
1%
#3487500
1!
1/
0%
1d
0e
0f
0g
09
08
17
16
14
03
10
19
07
15
04
11
05
#3500000
0!
0/
1%
#3512500
1!
1/
0%
1g
13
00
14
01
15
#3525000
0!
0/
1%
#3537500
1!
1/
0%
1f
0g
1U
06
04
03
10
17
05
16
14
11
07
15
1<
1=
0:
0;
1H
0L
1R
0Q
1P
0O
1K
1F
1?
1>
0G
0,
0$
#3550000
0!
0/
1%
#3562500
1!
1/
0%
0d
0f
0U
09
04
05
#3575000
0!
0/
1%
#3587500
1!
1/
0%
1g
13
00
14
01
15
#3600000
0!
0/
1%
#3612500
1!
1/
0%
1f
0g
06
04
03
10
17
05
16
14
11
07
15
#3625000
0!
0/
1%
#3637500
1!
1/
0%
1g
13
00
06
04
01
17
05
#3650000
0!
0/
1%
#3662500
1!
1/
0%
1e
0f
0g
18
07
16
14
03
10
19
08
17
15
04
11
09
05
#3675000
0!
0/
1%
#3687500
1!
1/
0%
1g
13
00
14
01
15
#3700000
0!
0/
1%
#3712500
1!
1/
0%
1f
0g
06
04
03
10
18
07
05
16
14
11
19
08
17
15
09
#3725000
0!
0/
1%
#3737500
1!
1/
0%
1g
13
00
06
04
01
18
07
05
19
#3750000
0!
0/
1%
#3762500
1!
1/
0%
1d
0e
0f
0g
09
08
17
16
14
03
10
19
07
15
04
11
05
#3775000
0!
0/
1%
#3787500
1!
1/
0%
1g
13
00
14
01
15
#3800000
0!
0/
1%
#3812500
1!
1/
0%
1f
0g
1U
06
04
03
10
17
05
16
14
11
07
15
0<
0=
1:
1;
#3825000
0!
0/
1%
#3837500
1!
1/
0%
0d
0f
0U
09
04
05
#3850000
0!
0/
1%
#3862500
1!
1/
0%
1g
13
00
14
01
15
#3875000
0!
0/
1%
#3887500
1!
1/
0%
1f
0g
06
04
03
10
17
05
16
14
11
07
15
#3900000
0!
0/
1%
#3912500
1!
1/
0%
1g
13
00
06
04
01
17
05
#3925000
0!
0/
1%
#3937500
1!
1/
0%
1e
0f
0g
18
07
16
14
03
10
19
08
17
15
04
11
09
05
#3950000
0!
0/
1%
#3962500
1!
1/
0%
1g
13
00
14
01
15
#3975000
0!
0/
1%
#3987500
1!
1/
0%
1f
0g
06
04
03
10
18
07
05
16
14
11
19
08
17
15
09
#4000000
0!
0/
1%
#4012500
1!
1/
0%
1g
13
00
06
04
01
18
07
05
19
#4025000
0!
0/
1%
#4037500
1!
1/
0%
1d
0e
0f
0g
09
08
17
16
14
03
10
19
07
15
04
11
05
#4050000
0!
0/
1%
#4062500
1!
1/
0%
1g
13
00
14
01
15
#4075000
0!
0/
1%
#4087500
1!
1/
0%
1f
0g
1U
06
04
03
10
17
05
16
14
11
07
15
1<
1=
0:
0;
0\
1]
0^
1_
0`
0H
1[
1L
0R
1Q
0P
1O
0K
0F
0?
0>
1G
1,
1$
0T
0-
0#
#4100000
0!
0/
1%
#4112500
1!
1/
0%
0d
0f
0U
09
04
05
#4125000
0!
0/
1%
#4137500
1!
1/
0%
1g
13
00
14
01
15
#4150000
0!
0/
1%
#4162500
1!
1/
0%
1f
0g
06
04
03
10
17
05
16
14
11
07
15
#4175000
0!
0/
1%
#4187500
1!
1/
0%
1g
13
00
06
04
01
17
05
#4200000
0!
0/
1%
#4212500
1!
1/
0%
1e
0f
0g
18
07
16
14
03
10
19
08
17
15
04
11
09
05
#4225000
0!
0/
1%
#4237500
1!
1/
0%
1g
13
00
14
01
15
#4250000
0!
0/
1%
#4262500
1!
1/
0%
1f
0g
06
04
03
10
18
07
05
16
14
11
19
08
17
15
09
#4275000
0!
0/
1%
#4287500
1!
1/
0%
1g
13
00
06
04
01
18
07
05
19
#4300000
0!
0/
1%
#4312500
1!
1/
0%
1d
0e
0f
0g
09
08
17
16
14
03
10
19
07
15
04
11
05
#4325000
0!
0/
1%
#4337500
1!
1/
0%
1g
13
00
14
01
15
#4350000
0!
0/
1%
#4362500
1!
1/
0%
1f
0g
1U
06
04
03
10
17
05
16
14
11
07
15
0<
0=
1:
1;
#4375000
0!
0/
1%
#4387500
1!
1/
0%
0d
0f
0U
09
04
05
#4400000
0!
0/
1%
#4412500
1!
1/
0%
1g
13
00
14
01
15
#4425000
0!
0/
1%
#4437500
1!
1/
0%
1f
0g
06
04
03
10
17
05
16
14
11
07
15
#4450000
0!
0/
1%
#4462500
1!
1/
0%
1g
13
00
06
04
01
17
05
#4475000
0!
0/
1%
#4487500
1!
1/
0%
1e
0f
0g
18
07
16
14
03
10
19
08
17
15
04
11
09
05
#4500000
0!
0/
1%
#4512500
1!
1/
0%
1g
13
00
14
01
15
#4525000
0!
0/
1%
#4537500
1!
1/
0%
1f
0g
06
04
03
10
18
07
05
16
14
11
19
08
17
15
09
#4550000
0!
0/
1%
#4562500
1!
1/
0%
1g
13
00
06
04
01
18
07
05
19
#4575000
0!
0/
1%
#4587500
1!
1/
0%
1d
0e
0f
0g
09
08
17
16
14
03
10
19
07
15
04
11
05
#4600000
0!
0/
1%
#4612500
1!
1/
0%
1g
13
00
14
01
15
#4625000
0!
0/
1%
#4637500
1!
1/
0%
1f
0g
1U
06
04
03
10
17
05
16
14
11
07
15
1<
1=
0:
0;
1H
0L
1S
0O
1K
1F
1@
0G
0,
0$
#4650000
0!
0/
1%
#4662500
1!
1/
0%
0d
0f
0U
09
04
05
#4675000
0!
0/
1%
#4687500
1!
1/
0%
1g
13
00
14
01
15
#4700000
0!
0/
1%
#4712500
1!
1/
0%
1f
0g
06
04
03
10
17
05
16
14
11
07
15
#4725000
0!
0/
1%
#4737500
1!
1/
0%
1g
13
00
06
04
01
17
05
#4750000
0!
0/
1%
#4762500
1!
1/
0%
1e
0f
0g
18
07
16
14
03
10
19
08
17
15
04
11
09
05
#4775000
0!
0/
1%
#4787500
1!
1/
0%
1g
13
00
14
01
15
#4800000
0!
0/
1%
#4812500
1!
1/
0%
1f
0g
06
04
03
10
18
07
05
16
14
11
19
08
17
15
09
#4825000
0!
0/
1%
#4837500
1!
1/
0%
1g
13
00
06
04
01
18
07
05
19
#4850000
0!
0/
1%
#4862500
1!
1/
0%
1d
0e
0f
0g
09
08
17
16
14
03
10
19
07
15
04
11
05
#4875000
0!
0/
1%
#4887500
1!
1/
0%
1g
13
00
14
01
15
#4900000
0!
0/
1%
#4912500
1!
1/
0%
1f
0g
1U
06
04
03
10
17
05
16
14
11
07
15
0<
0=
1:
1;
#4925000
0!
0/
1%
#4937500
1!
1/
0%
0d
0f
0U
09
04
05
#4950000
0!
0/
1%
#4962500
1!
1/
0%
1g
13
00
14
01
15
#4975000
0!
0/
1%
#4987500
1!
1/
0%
1f
0g
06
04
03
10
17
05
16
14
11
07
15
#5000000
0!
0/
1%
#5012500
1!
1/
0%
1g
13
00
06
04
01
17
05
#5025000
0!
0/
1%
#5037500
1!
1/
0%
1e
0f
0g
18
07
16
14
03
10
19
08
17
15
04
11
09
05
#5050000
0!
0/
1%
#5062500
1!
1/
0%
1g
13
00
14
01
15
#5075000
0!
0/
1%
#5087500
1!
1/
0%
1f
0g
06
04
03
10
18
07
05
16
14
11
19
08
17
15
09
#5100000
0!
0/
1%
#5112500
1!
1/
0%
1g
13
00
06
04
01
18
07
05
19
#5125000
0!
0/
1%
#5137500
1!
1/
0%
1d
0e
0f
0g
09
08
17
16
14
03
10
19
07
15
04
11
05
#5150000
0!
0/
1%
#5162500
1!
1/
0%
1g
13
00
14
01
15
#5175000
0!
0/
1%
#5187500
1!
1/
0%
1f
0g
1U
06
04
03
10
17
05
16
14
11
07
15
1<
1=
0:
0;
1\
0]
1^
0_
0H
0[
1Y
0Z
1L
0S
1O
0K
0F
0@
1G
1,
1$
1T
1-
1#
#5200000
0!
0/
1%
#5212500
1!
1/
0%
0d
0f
0U
09
04
05
#5225000
0!
0/
1%
#5237500
1!
1/
0%
1g
13
00
14
01
15
#5250000
0!
0/
1%
#5262500
1!
1/
0%
1f
0g
06
04
03
10
17
05
16
14
11
07
15
#5275000
0!
0/
1%
#5287500
1!
1/
0%
1g
13
00
06
04
01
17
05
#5300000
0!
0/
1%
#5312500
1!
1/
0%
1e
0f
0g
18
07
16
14
03
10
19
08
17
15
04
11
09
05
#5325000
0!
0/
1%
#5337500
1!
1/
0%
1g
13
00
14
01
15
#5350000
0!
0/
1%
#5362500
1!
1/
0%
1f
0g
06
04
03
10
18
07
05
16
14
11
19
08
17
15
09
#5375000
0!
0/
1%
#5387500
1!
1/
0%
1g
13
00
06
04
01
18
07
05
19
#5400000
0!
0/
1%
#5412500
1!
1/
0%
1d
0e
0f
0g
09
08
17
16
14
03
10
19
07
15
04
11
05
#5425000
0!
0/
1%
#5437500
1!
1/
0%
1g
13
00
14
01
15
#5450000
0!
0/
1%
#5462500
1!
1/
0%
1f
0g
1U
06
04
03
10
17
05
16
14
11
07
15
0<
0=
1:
1;
#5475000
0!
0/
1%
#5487500
1!
1/
0%
0d
0f
0U
09
04
05
#5500000
0!
0/
1%
#5512500
1!
1/
0%
1g
13
00
14
01
15
#5525000
0!
0/
1%
#5537500
1!
1/
0%
1f
0g
06
04
03
10
17
05
16
14
11
07
15
#5550000
0!
0/
1%
#5562500
1!
1/
0%
1g
13
00
06
04
01
17
05
#5575000
0!
0/
1%
#5587500
1!
1/
0%
1e
0f
0g
18
07
16
14
03
10
19
08
17
15
04
11
09
05
#5600000
0!
0/
1%
#5612500
1!
1/
0%
1g
13
00
14
01
15
#5625000
0!
0/
1%
#5637500
1!
1/
0%
1f
0g
06
04
03
10
18
07
05
16
14
11
19
08
17
15
09
#5650000
0!
0/
1%
#5662500
1!
1/
0%
1g
13
00
06
04
01
18
07
05
19
#5675000
0!
0/
1%
#5687500
1!
1/
0%
1d
0e
0f
0g
09
08
17
16
14
03
10
19
07
15
04
11
05
#5700000
0!
0/
1%
#5712500
1!
1/
0%
1g
13
00
14
01
15
#5725000
0!
0/
1%
#5737500
1!
1/
0%
1f
0g
1U
06
04
03
10
17
05
16
14
11
07
15
1<
1=
0:
0;
1H
0L
1R
0Q
0O
1K
1F
1@
1>
0G
0,
0$
#5750000
0!
0/
1%
#5762500
1!
1/
0%
0d
0f
0U
09
04
05
#5775000
0!
0/
1%
#5787500
1!
1/
0%
1g
13
00
14
01
15
#5800000
0!
0/
1%
