spi_master_w/simulation/qsim/spi.msim.vcd
$comment
	File created using the following command:
		vcd file spi.msim.vcd -direction
$end
$date
	Wed Oct 05 22:52:04 2022
$end
$version
	ModelSim Version 10.1d
$end
$timescale
	1ps
$end
$scope module spi_vlg_vec_tst $end
$var reg 1 ! clock $end
$var reg 8 " data [7:0] $end
$var wire 1 # MOSI $end
$var wire 1 $ SCK $end
$var wire 1 % sampler $end
$scope module i1 $end
$var wire 1 & gnd $end
$var wire 1 ' vcc $end
$var wire 1 ( unknown $end
$var tri1 1 ) devclrn $end
$var tri1 1 * devpor $end
$var tri1 1 + devoe $end
$var wire 1 , MOSI~output_o $end
$var wire 1 - SCK~output_o $end
$var wire 1 . clock~input_o $end
$var wire 1 / inst1|LPM_COUNTER_component|auto_generated|counter_comb_bita0~combout $end
$var wire 1 0 inst1|LPM_COUNTER_component|auto_generated|counter_reg_bit[0]~feeder_combout $end
$var wire 1 1 ~GND~combout $end
$var wire 1 2 inst1|LPM_COUNTER_component|auto_generated|counter_comb_bita0~COUT $end
$var wire 1 3 inst1|LPM_COUNTER_component|auto_generated|counter_comb_bita1~combout $end
$var wire 1 4 inst1|LPM_COUNTER_component|auto_generated|counter_reg_bit[1]~feeder_combout $end
$var wire 1 5 inst1|LPM_COUNTER_component|auto_generated|counter_comb_bita1~COUT $end
$var wire 1 6 inst1|LPM_COUNTER_component|auto_generated|counter_comb_bita2~combout $end
$var wire 1 7 inst1|LPM_COUNTER_component|auto_generated|counter_comb_bita2~COUT $end
$var wire 1 8 inst1|LPM_COUNTER_component|auto_generated|counter_comb_bita3~combout $end
$var wire 1 9 inst6~0_combout $end
$var wire 1 : inst6~feeder_combout $end
$var wire 1 ; inst6~q $end
$var wire 1 < inst6~clkctrl_outclk $end
$var wire 1 = inst5|LPM_COUNTER_component|auto_generated|counter_comb_bita0~combout $end
$var wire 1 > inst5|LPM_COUNTER_component|auto_generated|counter_comb_bita0~COUT $end
$var wire 1 ? inst5|LPM_COUNTER_component|auto_generated|counter_comb_bita1~combout $end
$var wire 1 @ inst5|LPM_COUNTER_component|auto_generated|counter_comb_bita1~COUT $end
$var wire 1 A inst5|LPM_COUNTER_component|auto_generated|counter_comb_bita2~combout $end
$var wire 1 B data[1]~input_o $end
$var wire 1 C data[3]~input_o $end
$var wire 1 D data[0]~input_o $end
$var wire 1 E data[2]~input_o $end
$var wire 1 F inst2|LPM_MUX_component|auto_generated|_~2_combout $end
$var wire 1 G inst2|LPM_MUX_component|auto_generated|_~3_combout $end
$var wire 1 H data[6]~input_o $end
$var wire 1 I data[7]~input_o $end
$var wire 1 J data[4]~input_o $end
$var wire 1 K data[5]~input_o $end
$var wire 1 L inst2|LPM_MUX_component|auto_generated|_~0_combout $end
$var wire 1 M inst2|LPM_MUX_component|auto_generated|_~1_combout $end
$var wire 1 N inst2|LPM_MUX_component|auto_generated|_~4_combout $end
$var wire 1 O inst3~q $end
$var wire 1 P inst5|LPM_COUNTER_component|auto_generated|counter_reg_bit [2] $end
$var wire 1 Q inst5|LPM_COUNTER_component|auto_generated|counter_reg_bit [1] $end
$var wire 1 R inst5|LPM_COUNTER_component|auto_generated|counter_reg_bit [0] $end
$var wire 1 S inst|LPM_DECODE_component|auto_generated|w_anode102w [3] $end
$var wire 1 T inst|LPM_DECODE_component|auto_generated|w_anode102w [2] $end
$var wire 1 U inst|LPM_DECODE_component|auto_generated|w_anode102w [1] $end
$var wire 1 V inst|LPM_DECODE_component|auto_generated|w_anode102w [0] $end
$var wire 1 W inst1|LPM_COUNTER_component|auto_generated|counter_reg_bit [3] $end
$var wire 1 X inst1|LPM_COUNTER_component|auto_generated|counter_reg_bit [2] $end
$var wire 1 Y inst1|LPM_COUNTER_component|auto_generated|counter_reg_bit [1] $end
$var wire 1 Z inst1|LPM_COUNTER_component|auto_generated|counter_reg_bit [0] $end
$upscope $end
$upscope $end
$enddefinitions $end
#0
$dumpvars
0!
b10100110 "
0#
0$
x%
0&
1'
x(
1)
1*
1+
0,
0-
0.
1/
10
01
02
03
04
15
06
07
08
19
1:
0;
0<
1=
0>
0?
1@
0A
1B
0C
0D
1E
0F
0G
0H
1I
0J
1K
0L
0M
0N
0O
0R
0Q
0P
zV
zU
zT
0S
0Z
0Y
0X
0W
$end
#1250
1!
1.
0%
1Z
12
0/
13
00
14
#2500
0!
0.
1%
#3750
1!
1.
0%
1Y
0Z
05
03
02
1/
16
04
15
13
10
06
14
#5000
0!
0.
1%
#6250
1!
1.
0%
1Z
12
0/
05
03
00
16
04
#7500
0!
0.
1%
#8750
1!
1.
0%
1X
0Y
0Z
17
06
15
13
02
1/
18
07
16
14
03
10
08
04
#10000
0!
0.
1%
#11250
1!
1.
0%
1Z
12
0/
13
00
14
#12500
0!
0.
1%
#13750
1!
1.
0%
1Y
0Z
05
03
02
1/
17
06
04
15
13
10
18
07
16
14
08
#15000
0!
0.
1%
#16250
1!
1.
0%
1Z
12
0/
05
03
00
17
06
04
18
#17500
0!
0.
1%
#18750
1!
1.
0%
1W
0X
0Y
0Z
08
07
16
15
13
02
1/
18
06
14
03
10
04
#20000
0!
0.
1%
#21250
1!
1.
0%
1Z
1S
12
0/
13
00
14
1;
1<
09
1-
1$
0:
1R
1L
1G
1>
0=
1M
1N
1?
#22500
0!
0.
1%
#23750
1!
1.
0%
0W
0Z
0S
08
02
1/
03
10
04
#25000
0!
0.
1%
#26250
1!
1.
0%
1Z
12
0/
13
00
14
#27500
0!
0.
1%
#28750
1!
1.
0%
1Y
0Z
05
03
02
1/
16
04
15
13
10
06
14
#30000
0!
0.
1%
#31250
1!
1.
0%
1Z
12
0/
05
03
00
16
04
#32500
0!
0.
1%
#33750
1!
1.
0%
1X
0Y
0Z
17
06
15
13
02
1/
18
07
16
14
03
10
08
04
#35000
0!
0.
1%
#36250
1!
1.
0%
1Z
12
0/
13
00
14
#37500
0!
0.
1%
#38750
1!
1.
0%
1Y
0Z
05
03
02
1/
17
06
04
15
13
10
18
07
16
14
08
#40000
0!
0.
1%
#41250
1!
1.
0%
1Z
12
0/
05
03
00
17
06
04
18
#42500
0!
0.
1%
#43750
1!
1.
0%
1W
0X
0Y
0Z
08
07
16
15
13
02
1/
18
06
14
03
10
04
#45000
0!
0.
1%
#46250
1!
1.
0%
1Z
1S
12
0/
13
00
14
0;
0<
19
0-
0$
1:
1O
1,
1#
#47500
0!
0.
1%
#48750
1!
1.
0%
0W
0Z
0S
08
02
1/
03
10
04
#50000
0!
0.
1%
#51250
1!
1.
0%
1Z
12
0/
13
00
14
#52500
0!
0.
1%
#53750
1!
1.
0%
1Y
0Z
05
03
02
1/
16
04
15
13
10
06
14
#55000
0!
0.
1%
#56250
1!
1.
0%
1Z
12
0/
05
03
00
16
04
#57500
0!
0.
1%
#58750
1!
1.
0%
1X
0Y
0Z
17
06
15
13
02
1/
18
07
16
14
03
10
08
04
#60000
0!
0.
1%
#61250
1!
1.
0%
1Z
12
0/
13
00
14
#62500
0!
0.
1%
#63750
1!
1.
0%
1Y
0Z
05
03
02
1/
17
06
04
15
13
10
18
07
16
14
08
#65000
0!
0.
1%
#66250
1!
1.
0%
1Z
12
0/
05
03
00
17
06
04
18
#67500
0!
0.
1%
#68750
1!
1.
0%
1W
0X
0Y
0Z
08
07
16
15
13
02
1/
18
06
14
03
10
04
#70000
0!
0.
1%
#71250
1!
1.
0%
1Z
1S
12
0/
13
00
14
1;
1<
09
1-
1$
0:
1Q
0R
0L
1F
0@
0?
0G
0>
1=
0M
1G
1A
0N
1@
1?
1N
0A
#72500
0!
0.
1%
#73750
1!
1.
0%
0W
0Z
0S
08
02
1/
03
10
04
#75000
0!
0.
1%
#76250
1!
1.
0%
1Z
12
0/
13
00
14
#77500
0!
0.
1%
#78750
1!
1.
0%
1Y
0Z
05
03
02
1/
16
04
15
13
10
06
14
#80000
0!
0.
1%
#81250
1!
1.
0%
1Z
12
0/
05
03
00
16
04
#82500
0!
0.
1%
#83750
1!
1.
0%
1X
0Y
0Z
17
06
15
13
02
1/
18
07
16
14
03
10
08
04
#85000
0!
0.
1%
#86250
1!
1.
0%
1Z
12
0/
13
00
14
#87500
0!
0.
1%
#88750
1!
1.
0%
1Y
0Z
05
03
02
1/
17
06
04
15
13
10
18
07
16
14
08
#90000
0!
0.
1%
#91250
1!
1.
0%
1Z
12
0/
05
03
00
17
06
04
18
#92500
0!
0.
1%
#93750
1!
1.
0%
1W
0X
0Y
0Z
08
07
16
15
13
02
1/
18
06
14
03
10
04
#95000
0!
0.
1%
#96250
1!
1.
0%
1Z
1S
12
0/
13
00
14
0;
0<
19
0-
0$
1:
#97500
0!
0.
1%
#98750
1!
1.
0%
0W
0Z
0S
08
02
1/
03
10
04
#100000
0!
0.
1%
#101250
1!
1.
0%
1Z
12
0/
13
00
14
#102500
0!
0.
1%
#103750
1!
1.
0%
1Y
0Z
05
03
02
1/
16
04
15
13
10
06
14
#105000
0!
0.
1%
#106250
1!
1.
0%
1Z
12
0/
05
03
00
16
04
#107500
0!
0.
1%
#108750
1!
1.
0%
1X
0Y
0Z
17
06
15
13
02
1/
18
07
16
14
03
10
08
04
#110000
0!
0.
1%
#111250
1!
1.
0%
1Z
12
0/
13
00
14
#112500
0!
0.
1%
#113750
1!
1.
0%
1Y
0Z
05
03
02
1/
17
06
04
15
13
10
18
07
16
14
08
#115000
0!
0.
1%
#116250
1!
1.
0%
1Z
12
0/
05
03
00
17
06
04
18
#117500
0!
0.
1%
#118750
1!
1.
0%
1W
0X
0Y
0Z
08
07
16
15
13
02
1/
18
06
14
03
10
04
#120000
0!
0.
1%
#121250
1!
1.
0%
1Z
1S
12
0/
13
00
14
1;
1<
09
1-
1$
0:
1R
1L
0G
1>
0=
1M
0N
0@
0?
1A
#122500
0!
0.
1%
#123750
1!
1.
0%
0W
0Z
0S
08
02
1/
03
10
04
#125000
0!
0.
1%
#126250
1!
1.
0%
1Z
12
0/
13
00
14
#127500
0!
0.
1%
#128750
1!
1.
0%
1Y
0Z
05
03
02
1/
16
04
15
13
10
06
14
#130000
0!
0.
1%
#131250
1!
1.
0%
1Z
12
0/
05
03
00
16
04
#132500
0!
0.
1%
#133750
1!
1.
0%
1X
0Y
0Z
17
06
15
13
02
1/
18
07
16
14
03
10
08
04
#135000
0!
0.
1%
#136250
1!
1.
0%
1Z
12
0/
13
00
14
#137500
0!
0.
1%
#138750
1!
1.
0%
1Y
0Z
05
03
02
1/
17
06
04
15
13
10
18
07
16
14
08
#140000
0!
0.
1%
#141250
1!
1.
0%
1Z
12
0/
05
03
00
17
06
04
18
#142500
0!
0.
1%
#143750
1!
1.
0%
1W
0X
0Y
0Z
08
07
16
15
13
02
1/
18
06
14
03
10
04
#145000
0!
0.
1%
#146250
1!
1.
0%
1Z
1S
12
0/
13
00
14
0;
0<
19
0-
0$
1:
0O
0,
0#
#147500
0!
0.
1%
#148750
1!
1.
0%
0W
0Z
0S
08
02
1/
03
10
04
#150000
0!
0.
1%
#151250
1!
1.
0%
1Z
12
0/
13
00
14
#152500
0!
0.
1%
#153750
1!
1.
0%
1Y
0Z
05
03
02
1/
16
04
15
13
10
06
14
#155000
0!
0.
1%
#156250
1!
1.
0%
1Z
12
0/
05
03
00
16
04
#157500
0!
0.
1%
#158750
1!
1.
0%
1X
0Y
0Z
17
06
15
13
02
1/
18
07
16
14
03
10
08
04
#160000
0!
0.
1%
#161250
1!
1.
0%
1Z
12
0/
13
00
14
#162500
0!
0.
1%
#163750
1!
1.
0%
1Y
0Z
05
03
02
1/
17
06
04
15
13
10
18
07
16
14
08
#165000
0!
0.
1%
#166250
1!
1.
0%
1Z
12
0/
05
03
00
17
06
04
18
#167500
0!
0.
1%
#168750
1!
1.
0%
1W
0X
0Y
0Z
08
07
16
15
13
02
1/
18
06
14
03
10
04
#170000
0!
0.
1%
#171250
1!
1.
0%
1Z
1S
12
0/
13
00
14
1;
1<
09
1-
1$
0:
1P
0Q
0R
1N
0A
0L
0F
1@
1?
1G
0>
1=
0M
0G
1A
0?
0N
#172500
0!
0.
1%
#173750
1!
1.
0%
0W
0Z
0S
08
02
1/
03
10
04
#175000
0!
0.
1%
#176250
1!
1.
0%
1Z
12
0/
13
00
14
#177500
0!
0.
1%
#178750
1!
1.
0%
1Y
0Z
05
03
02
1/
16
04
15
13
10
06
14
#180000
0!
0.
1%
#181250
1!
1.
0%
1Z
12
0/
05
03
00
16
04
#182500
0!
0.
1%
#183750
1!
1.
0%
1X
0Y
0Z
17
06
15
13
02
1/
18
07
16
14
03
10
08
04
#185000
0!
0.
1%
#186250
1!
1.
0%
1Z
12
0/
13
00
14
#187500
0!
0.
1%
#188750
1!
1.
0%
1Y
0Z
05
03
02
1/
17
06
04
15
13
10
18
07
16
14
08
#190000
0!
0.
1%
#191250
1!
1.
0%
1Z
12
0/
05
03
00
17
06
04
18
#192500
0!
0.
1%
#193750
1!
1.
0%
1W
0X
0Y
0Z
08
07
16
15
13
02
1/
18
06
14
03
10
04
#195000
0!
0.
1%
#196250
1!
1.
0%
1Z
1S
12
0/
13
00
14
0;
0<
19
0-
0$
1:
#197500
0!
0.
1%
#198750
1!
1.
0%
0W
0Z
0S
08
02
1/
03
10
04
#200000
0!
0.
1%
#201250
1!
1.
0%
1Z
12
0/
13
00
14
#202500
0!
0.
1%
#203750
1!
1.
0%
1Y
0Z
05
03
02
1/
16
04
15
13
10
06
14
#205000
0!
0.
1%
#206250
1!
1.
0%
1Z
12
0/
05
03
00
16
04
#207500
0!
0.
1%
#208750
1!
1.
0%
1X
0Y
0Z
17
06
15
13
02
1/
18
07
16
14
03
10
08
04
#210000
0!
0.
1%
#211250
1!
1.
0%
1Z
12
0/
13
00
14
#212500
0!
0.
1%
#213750
1!
1.
0%
1Y
0Z
05
03
02
1/
17
06
04
15
13
10
18
07
16
14
08
#215000
0!
0.
1%
#216250
1!
1.
0%
1Z
12
0/
05
03
00
17
06
04
18
#217500
0!
0.
1%
#218750
1!
1.
0%
1W
0X
0Y
0Z
08
07
16
15
13
02
1/
18
06
14
03
10
04
#220000
0!
0.
1%
#221250
1!
1.
0%
1Z
1S
12
0/
13
00
14
1;
1<
09
1-
1$
0:
1R
1L
1G
1>
0=
1M
1?
1N
#222500
0!
0.
1%
#223750
1!
1.
0%
0W
0Z
0S
08
02
1/
03
10
04
#225000
0!
0.
1%
#226250
1!
1.
0%
1Z
12
0/
13
00
14
#227500
0!
0.
1%
#228750
1!
1.
0%
1Y
0Z
05
03
02
1/
16
04
15
13
10
06
14
#230000
0!
0.
1%
#231250
1!
1.
0%
1Z
12
0/
05
03
00
16
04
#232500
0!
0.
1%
#233750
1!
1.
0%
1X
0Y
0Z
17
06
15
13
02
1/
18
07
16
14
03
10
08
04
#235000
0!
0.
1%
#236250
1!
1.
0%
1Z
12
0/
13
00
14
#237500
0!
0.
1%
#238750
1!
1.
0%
1Y
0Z
05
03
02
1/
17
06
04
15
13
10
18
07
16
14
08
#240000
0!
0.
1%
#241250
1!
1.
0%
1Z
12
0/
05
03
00
17
06
04
18
#242500
0!
0.
1%
#243750
1!
1.
0%
1W
0X
0Y
0Z
08
07
16
15
13
02
1/
18
06
14
03
10
04
#245000
0!
0.
1%
#246250
1!
1.
0%
1Z
1S
12
0/
13
00
14
0;
0<
19
0-
0$
1:
1O
1,
1#
#247500
0!
0.
1%
#248750
1!
1.
0%
0W
0Z
0S
08
02
1/
03
10
04
#250000
0!
0.
1%
#251250
1!
1.
0%
1Z
12
0/
13
00
14
#252500
0!
0.
1%
#253750
1!
1.
0%
1Y
0Z
05
03
02
1/
16
04
15
13
10
06
14
#255000
0!
0.
1%
#256250
1!
1.
0%
1Z
12
0/
05
03
00
16
04
#257500
0!
0.
1%
#258750
1!
1.
0%
1X
0Y
0Z
17
06
15
13
02
1/
18
07
16
14
03
10
08
04
#260000
0!
0.
1%
#261250
1!
1.
0%
1Z
12
0/
13
00
14
#262500
0!
0.
1%
#263750
1!
1.
0%
1Y
0Z
05
03
02
1/
17
06
04
15
13
10
18
07
16
14
08
#265000
0!
0.
1%
#266250
1!
1.
0%
1Z
12
0/
05
03
00
17
06
04
18
#267500
0!
0.
1%
#268750
1!
1.
0%
1W
0X
0Y
0Z
08
07
16
15
13
02
1/
18
06
14
03
10
04
#270000
0!
0.
1%
#271250
1!
1.
0%
1Z
1S
12
0/
13
00
14
1;
1<
09
1-
1$
0:
1Q
0R
0L
1F
0@
0?
0G
0>
1=
0M
1G
0A
1@
1?
0N
1A
#272500
0!
0.
1%
#273750
1!
1.
0%
0W
0Z
0S
08
02
1/
03
10
04
#275000
0!
0.
1%
#276250
1!
1.
0%
1Z
12
0/
13
00
14
#277500
0!
0.
1%
#278750
1!
1.
0%
1Y
0Z
05
03
02
1/
16
04
15
13
10
06
14
#280000
0!
0.
1%
#281250
1!
1.
0%
1Z
12
0/
05
03
00
16
04
#282500
0!
0.
1%
#283750
1!
1.
0%
1X
0Y
0Z
17
06
15
13
02
1/
18
07
16
14
03
10
08
04
#285000
0!
0.
1%
#286250
1!
1.
0%
1Z
12
0/
13
00
14
#287500
0!
0.
1%
#288750
1!
1.
0%
1Y
0Z
05
03
02
1/
17
06
04
15
13
10
18
07
16
14
08
#290000
0!
0.
1%
#291250
1!
1.
0%
1Z
12
0/
05
03
00
17
06
04
18
#292500
0!
0.
1%
#293750
1!
1.
0%
1W
0X
0Y
0Z
08
07
16
15
13
02
1/
18
06
14
03
10
04
#295000
0!
0.
1%
#296250
1!
1.
0%
1Z
1S
12
0/
13
00
14
0;
0<
19
0-
0$
1:
0O
0,
0#
#297500
0!
0.
1%
#298750
1!
1.
0%
0W
0Z
0S
08
02
1/
03
10
04
#300000
0!
0.
1%
#301250
1!
1.
0%
1Z
12
0/
13
00
14
#302500
0!
0.
1%
#303750
1!
1.
0%
1Y
0Z
05
03
02
1/
16
04
15
13
10
06
14
#305000
0!
0.
1%
#306250
1!
1.
0%
1Z
12
0/
05
03
00
16
04
#307500
0!
0.
1%
#308750
1!
1.
0%
1X
0Y
0Z
17
06
15
13
02
1/
18
07
16
14
03
10
08
04
#310000
0!
0.
1%
#311250
1!
1.
0%
1Z
12
0/
13
00
14
#312500
0!
0.
1%
#313750
1!
1.
0%
1Y
0Z
05
03
02
1/
17
06
04
15
13
10
18
07
16
14
08
#315000
0!
0.
1%
#316250
1!
1.
0%
1Z
12
0/
05
03
00
17
06
04
18
#317500
0!
0.
1%
#318750
1!
1.
0%
1W
0X
0Y
0Z
08
07
16
15
13
02
1/
18
06
14
03
10
04
#320000
0!
0.
1%
#321250
1!
1.
0%
1Z
1S
12
0/
13
00
14
1;
1<
09
1-
1$
0:
1R
1L
0G
1>
0=
1M
0@
0?
1N
0A
#322500
0!
0.
1%
#323750
1!
1.
0%
0W
0Z
0S
08
02
1/
03
10
04
#325000
0!
0.
1%
#326250
1!
1.
0%
1Z
12
0/
13
00
14
#327500
0!
0.
1%
#328750
1!
1.
0%
1Y
0Z
05
03
02
1/
16
04
15
13
10
06
14
#330000
0!
0.
1%
#331250
1!
1.
0%
1Z
12
0/
05
03
00
16
04
#332500
0!
0.
1%
#333750
1!
1.
0%
1X
0Y
0Z
17
06
15
13
02
1/
18
07
16
14
03
10
08
04
#335000
0!
0.
1%
#336250
1!
1.
0%
1Z
12
0/
13
00
14
#337500
0!
0.
1%
#338750
1!
1.
0%
1Y
0Z
05
03
02
1/
17
06
04
15
13
10
18
07
16
14
08
#340000
0!
0.
1%
#341250
1!
1.
0%
1Z
12
0/
05
03
00
17
06
04
18
#342500
0!
0.
1%
#343750
1!
1.
0%
1W
0X
0Y
0Z
08
07
16
15
13
02
1/
18
06
14
03
10
04
#345000
0!
0.
1%
#346250
1!
1.
0%
1Z
1S
12
0/
13
00
14
0;
0<
19
0-
0$
1:
1O
1,
1#
#347500
0!
0.
1%
#348750
1!
1.
0%
0W
0Z
0S
08
02
1/
03
10
04
#350000
0!
0.
1%
#351250
1!
1.
0%
1Z
12
0/
13
00
14
#352500
0!
0.
1%
#353750
1!
1.
0%
1Y
0Z
05
03
02
1/
16
04
15
13
10
06
14
#355000
0!
0.
1%
#356250
1!
1.
0%
1Z
12
0/
05
03
00
16
04
#357500
0!
0.
1%
#358750
1!
1.
0%
1X
0Y
0Z
17
06
15
13
02
1/
18
07
16
14
03
10
08
04
#360000
0!
0.
1%
#361250
1!
1.
0%
1Z
12
0/
13
00
14
#362500
0!
0.
1%
#363750
1!
1.
0%
1Y
0Z
05
03
02
1/
17
06
04
15
13
10
18
07
16
14
08
#365000
0!
0.
1%
#366250
1!
1.
0%
1Z
12
0/
05
03
00
17
06
04
18
#367500
0!
0.
1%
#368750
1!
1.
0%
1W
0X
0Y
0Z
08
07
16
15
13
02
1/
18
06
14
03
10
04
#370000
0!
0.
1%
#371250
1!
1.
0%
1Z
1S
12
0/
13
00
14
1;
1<
09
1-
1$
0:
0P
0Q
0R
0N
1A
0L
0F
1@
1?
1G
0>
1=
0M
0G
0A
1N
0?
0N
#372500
0!
0.
1%
#373750
1!
1.
0%
0W
0Z
0S
08
02
1/
03
10
04
#375000
0!
0.
1%
#376250
1!
1.
0%
1Z
12
0/
13
00
14
#377500
0!
0.
1%
#378750
1!
1.
0%
1Y
0Z
05
03
02
1/
16
04
15
13
10
06
14
#380000
0!
0.
1%
#381250
1!
1.
0%
1Z
12
0/
05
03
00
16
04
#382500
0!
0.
1%
#383750
1!
1.
0%
1X
0Y
0Z
17
06
15
13
02
1/
18
07
16
14
03
10
08
04
#385000
0!
0.
1%
#386250
1!
1.
0%
1Z
12
0/
13
00
14
#387500
0!
0.
1%
#388750
1!
1.
0%
1Y
0Z
05
03
02
1/
17
06
04
15
13
10
18
07
16
14
08
#390000
0!
0.
1%
#391250
1!
1.
0%
1Z
12
0/
05
03
00
17
06
04
18
#392500
0!
0.
1%
#393750
1!
1.
0%
1W
0X
0Y
0Z
08
07
16
15
13
02
1/
18
06
14
03
10
04
#395000
0!
0.
1%
#396250
1!
1.
0%
1Z
1S
12
0/
13
00
14
0;
0<
19
0-
0$
1:
0O
0,
0#
#397500
0!
0.
1%
#398750
1!
1.
0%
0W
0Z
0S
08
02
1/
03
10
04
#400000
0!
0.
1%
#401250
1!
1.
0%
1Z
12
0/
13
00
14
#402500
0!
0.
1%
#403750
1!
1.
0%
1Y
0Z
05
03
02
1/
16
04
15
13
10
06
14
#405000
0!
0.
1%
#406250
1!
1.
0%
1Z
12
0/
05
03
00
16
04
#407500
0!
0.
1%
#408750
1!
1.
0%
1X
0Y
0Z
17
06
15
13
02
1/
18
07
16
14
03
10
08
04
#410000
0!
0.
1%
#411250
1!
1.
0%
1Z
12
0/
13
00
14
#412500
0!
0.
1%
#413750
1!
1.
0%
1Y
0Z
05
03
02
1/
17
06
04
15
13
10
18
07
16
14
08
#415000
0!
0.
1%
#416250
1!
1.
0%
1Z
12
0/
05
03
00
17
06
04
18
#417500
0!
0.
1%
#418750
1!
1.
0%
1W
0X
0Y
0Z
08
07
16
15
13
02
1/
18
06
14
03
10
04
#420000
0!
0.
1%
#421250
1!
1.
0%
1Z
1S
12
0/
13
00
14
1;
1<
09
1-
1$
0:
1R
1L
1G
1>
0=
1M
1N
1?
#422500
0!
0.
1%
#423750
1!
1.
0%
0W
0Z
0S
08
02
1/
03
10
04
#425000
0!
0.
1%
#426250
1!
1.
0%
1Z
12
0/
13
00
14
#427500
0!
0.
1%
#428750
1!
1.
0%
1Y
0Z
05
03
02
1/
16
04
15
13
10
06
14
#430000
0!
0.
1%
#431250
1!
1.
0%
1Z
12
0/
05
03
00
16
04
#432500
0!
0.
1%
#433750
1!
1.
0%
1X
0Y
0Z
17
06
15
13
02
1/
18
07
16
14
03
10
08
04
#435000
0!
0.
1%
#436250
1!
1.
0%
1Z
12
0/
13
00
14
#437500
0!
0.
1%
#438750
1!
1.
0%
1Y
0Z
05
03
02
1/
17
06
04
15
13
10
18
07
16
14
08
#440000
0!
0.
1%
#441250
1!
1.
0%
1Z
12
0/
05
03
00
17
06
04
18
#442500
0!
0.
1%
#443750
1!
1.
0%
1W
0X
0Y
0Z
08
07
16
15
13
02
1/
18
06
14
03
10
04
#445000
0!
0.
1%
#446250
1!
1.
0%
1Z
1S
12
0/
13
00
14
0;
0<
19
0-
0$
1:
1O
1,
1#
#447500
0!
0.
1%
#448750
1!
1.
0%
0W
0Z
0S
08
02
1/
03
10
04
#450000
0!
0.
1%
#451250
1!
1.
0%
1Z
12
0/
13
00
14
#452500
0!
0.
1%
#453750
1!
1.
0%
1Y
0Z
05
03
02
1/
16
04
15
13
10
06
14
#455000
0!
0.
1%
#456250
1!
1.
0%
1Z
12
0/
05
03
00
16
04
#457500
0!
0.
1%
#458750
1!
1.
0%
1X
0Y
0Z
17
06
15
13
02
1/
18
07
16
14
03
10
08
04
#460000
0!
0.
1%
#461250
1!
1.
0%
1Z
12
0/
13
00
14
#462500
0!
0.
1%
#463750
1!
1.
0%
1Y
0Z
05
03
02
1/
17
06
04
15
13
10
18
07
16
14
08
#465000
0!
0.
1%
#466250
1!
1.
0%
1Z
12
0/
05
03
00
17
06
04
18
#467500
0!
0.
1%
#468750
1!
1.
0%
1W
0X
0Y
0Z
08
07
16
15
13
02
1/
18
06
14
03
10
04
#470000
0!
0.
1%
#471250
1!
1.
0%
1Z
1S
12
0/
13
00
14
1;
1<
09
1-
1$
0:
1Q
0R
0L
1F
0@
0?
0G
0>
1=
0M
1G
1A
0N
1@
1?
1N
0A
#472500
0!
0.
1%
#473750
1!
1.
0%
0W
0Z
0S
08
02
1/
03
10
04
#475000
0!
0.
1%
#476250
1!
1.
0%
1Z
12
0/
13
00
14
#477500
0!
0.
1%
#478750
1!
1.
0%
1Y
0Z
05
03
02
1/
16
04
15
13
10
06
14
#480000
0!
0.
1%
#481250
1!
1.
0%
1Z
12
0/
05
03
00
16
04
#482500
0!
0.
1%
#483750
1!
1.
0%
1X
0Y
0Z
17
06
15
13
02
1/
18
07
16
14
03
10
08
04
#485000
0!
0.
1%
#486250
1!
1.
0%
1Z
12
0/
13
00
14
#487500
0!
0.
1%
#488750
1!
1.
0%
1Y
0Z
05
03
02
1/
17
06
04
15
13
10
18
07
16
14
08
#490000
0!
0.
1%
#491250
1!
1.
0%
1Z
12
0/
05
03
00
17
06
04
18
#492500
0!
0.
1%
#493750
1!
1.
0%
1W
0X
0Y
0Z
08
07
16
15
13
02
1/
18
06
14
03
10
04
#495000
0!
0.
1%
#496250
1!
1.
0%
1Z
1S
12
0/
13
00
14
0;
0<
19
0-
0$
1:
#497500
0!
0.
1%
#498750
1!
1.
0%
0W
0Z
0S
08
02
1/
03
10
04
#500000
0!
0.
1%
#501250
1!
1.
0%
1Z
12
0/
13
00
14
#502500
0!
0.
1%
#503750
1!
1.
0%
1Y
0Z
05
03
02
1/
16
04
15
13
10
06
14
#505000
0!
0.
1%
#506250
1!
1.
0%
1Z
12
0/
05
03
00
16
04
#507500
0!
0.
1%
#508750
1!
1.
0%
1X
0Y
0Z
17
06
15
13
02
1/
18
07
16
14
03
10
08
04
#510000
0!
0.
1%
#511250
1!
1.
0%
1Z
12
0/
13
00
14
#512500
0!
0.
1%
#513750
1!
1.
0%
1Y
0Z
05
03
02
1/
17
06
04
15
13
10
18
07
16
14
08
#515000
0!
0.
1%
#516250
1!
1.
0%
1Z
12
0/
05
03
00
17
06
04
18
#517500
0!
0.
1%
#518750
1!
1.
0%
1W
0X
0Y
0Z
08
07
16
15
13
02
1/
18
06
14
03
10
04
#520000
0!
0.
1%
#521250
1!
1.
0%
1Z
1S
12
0/
13
00
14
1;
1<
09
1-
1$
0:
1R
1L
0G
1>
0=
1M
0N
0@
0?
1A
#522500
0!
0.
1%
#523750
1!
1.
0%
0W
0Z
0S
08
02
1/
03
10
04
#525000
0!
0.
1%
#526250
1!
1.
0%
1Z
12
0/
13
00
14
#527500
0!
0.
1%
#528750
1!
1.
0%
1Y
0Z
05
03
02
1/
16
04
15
13
10
06
14
#530000
0!
0.
1%
#531250
1!
1.
0%
1Z
12
0/
05
03
00
16
04
#532500
0!
0.
1%
#533750
1!
1.
0%
1X
0Y
0Z
17
06
15
13
02
1/
18
07
16
14
03
10
08
04
#535000
0!
0.
1%
#536250
1!
1.
0%
1Z
12
0/
13
00
14
#537500
0!
0.
1%
#538750
1!
1.
0%
1Y
0Z
05
03
02
1/
17
06
04
15
13
10
18
07
16
14
08
#540000
0!
0.
1%
#541250
1!
1.
0%
1Z
12
0/
05
03
00
17
06
04
18
#542500
0!
0.
1%
#543750
1!
1.
0%
1W
0X
0Y
0Z
08
07
16
15
13
02
1/
18
06
14
03
10
04
#545000
0!
0.
1%
#546250
1!
1.
0%
1Z
1S
12
0/
13
00
14
0;
0<
19
0-
0$
1:
0O
0,
0#
#547500
0!
0.
1%
#548750
1!
1.
0%
0W
0Z
0S
08
02
1/
03
10
04
#550000
0!
0.
1%
#551250
1!
1.
0%
1Z
12
0/
13
00
14
#552500
0!
0.
1%
#553750
1!
1.
0%
1Y
0Z
05
03
02
1/
16
04
15
13
10
06
14
#555000
0!
0.
1%
#556250
1!
1.
0%
1Z
12
0/
05
03
00
16
04
#557500
0!
0.
1%
#558750
1!
1.
0%
1X
0Y
0Z
17
06
15
13
02
1/
18
07
16
14
03
10
08
04
#560000
0!
0.
1%
#561250
1!
1.
0%
1Z
12
0/
13
00
14
#562500
0!
0.
1%
#563750
1!
1.
0%
1Y
0Z
05
03
02
1/
17
06
04
15
13
10
18
07
16
14
08
#565000
0!
0.
1%
#566250
1!
1.
0%
1Z
12
0/
05
03
00
17
06
04
18
#567500
0!
0.
1%
#568750
1!
1.
0%
1W
0X
0Y
0Z
08
07
16
15
13
02
1/
18
06
14
03
10
04
#570000
0!
0.
1%
